{
  "agent":{"name":"yolo","lang":"fr-FR"},
  "data":[
  {"keyword":["person"],"response":[""]},
  {"keyword":["cell phone"],"response":[""]},
  {"keyword":["tv"],"response":[""]},
  {"keyword":["cup"],"response":["glou glou"]},
  {"keyword":["bottle"],"response":[""]},
  {"keyword":["wine glass"],"response":[""]},
  {"keyword":["laptop"],"response":[""]},
  {"keyword":["remote"],"response":[""]},
  {"keyword":["keyboard"],"response":[""]},
  {"keyword":["mouse"],"response":[""]},
  {"keyword":["bicycle"],"response":[""]},
  {"keyword":["car"],"response":[""]},
  {"keyword":["motorcycle"],"response":[""]},
  {"keyword":["bird"],"response":[""]},
  {"keyword":["cat"],"response":[""]},
  {"keyword":["dog"],"response":[""]},
  {"keyword":["horse"],"response":[""]},
  {"keyword":["sheep"],"response":[""]},
  {"keyword":["cow"],"response":[""]},
  {"keyword":["elephant"],"response":[""]},
  {"keyword":["bear"],"response":[""]},
  {"keyword":["zebra"],"response":[""]},
  {"keyword":["giraffe"],"response":[""]},
  {"keyword":["frisbee"],"response":[""]},
  {"keyword":["skis"],"response":[""]},
  {"keyword":["snowboard"],"response":[""]},
  {"keyword":["sports ball"],"response":[""]},
  {"keyword":["kite"],"response":[""]},
  {"keyword":["baseball bat"],"response":[""]},
  {"keyword":["baseball glove"],"response":[""]},
  {"keyword":["skateboard"],"response":[""]},
  {"keyword":["surfboard"],"response":[""]},
  {"keyword":["tennis racket"],"response":[""]},
  {"keyword":["fork"],"response":[""]},
  {"keyword":["knife"],"response":[""]},
  {"keyword":["spoon"],"response":[""]},
  {"keyword":["bowl"],"response":[""]},
  {"keyword":["banana"],"response":[""]},
  {"keyword":["apple"],"response":[""]},
  {"keyword":["sandwich"],"response":[""]},
  {"keyword":["orange"],"response":[""]},
  {"keyword":["broccoli"],"response":[""]},
  {"keyword":["carrot"],"response":[""]},
  {"keyword":["hot dog"],"response":[""]},
  {"keyword":["pizza"],"response":[""]},
  {"keyword":["donut"],"response":[""]},
  {"keyword":["cake"],"response":[""]},
  {"keyword":["chair"],"response":[""]},
  {"keyword":["sofa"],"response":[""]},
  {"keyword":["potted plant"],"response":[""]},
  {"keyword":["bed"],"response":[""]},
  {"keyword":["dining table"],"response":[""]},
  {"keyword":["toilet"],"response":[""]},
  {"keyword":["backpack"],"response":[""]},
  {"keyword":["umbrella"],"response":[""]},
  {"keyword":["handbag"],"response":[""]},
  {"keyword":["tie"],"response":[""]},
  {"keyword":["suitcase"],"response":[""]},
  {"keyword":["airplane"],"response":[""]},
  {"keyword":["bus"],"response":[""]},
  {"keyword":["train"],"response":[""]},
  {"keyword":["truck"],"response":[""]},
  {"keyword":["boat"],"response":[""]},
  {"keyword":["traffic light"],"response":[""]},
  {"keyword":["fire hydrant"],"response":[""]},
  {"keyword":["stop sign"],"response":[""]},
  {"keyword":["parking meter"],"response":[""]},
  {"keyword":["bench"],"response":[""]},
  {"keyword":["microwave"],"response":[""]},
  {"keyword":["oven"],"response":[""]},
  {"keyword":["toaster"],"response":[""]},
  {"keyword":["sink"],"response":[""]},
  {"keyword":["refrigerator"],"response":[""]},
  {"keyword":["vase"],"response":[""]},
  {"keyword":["hair drier"],"response":[""]},
  {"keyword":["toothbrush"],"response":[""]},
  {"keyword":["book"],"response":[""]},
  {"keyword":["clock"],"response":[""]},
  {"keyword":["scissors"],"response":[""]},
  {"keyword":["teddy bear"],"response":[""]}

  ]
}