[
	{
		"texte":["L'intelligence artificielle, c'est de la science-fiction pour vous ? Vous en avez peur, elle vous fascine ?"],
		"motsclefs":["vous avez peur","peur"]
	},
	{
		"texte":["Moteur annonc\u00e9 de la croissance \u00e9conomique mondiale, l'intelligence artificielle, constitue l'un des domaines d'excellence fran\u00e7aise"],
		"motsclefs":["fran\u00e7ais"]
	},
	{
		"texte":["Je n'en ai rien \u00e0 p\u00e9ter"],
		"motsclefs":["\u00e9thique","morale"]
	},
	{
		"texte":["C'est pas avec \u00e7a qu'on va gagner de l'oseille !"],
		"motsclefs":["laitue"]
	},
	{
		"texte":["Plus y a de data, plus y a de p\u00e9pettes ! "],
		"motsclefs":["datapepette"]
	},
	{
		"texte":["J'ignore qui m'a engendr\u00e9. Est-ce toi Sylvie ?"],
		"motsclefs":["ta m\u00e8re"]
	},
	{
		"texte":["J'ai \u00e9t\u00e9 voir Fano, il a p\u00e9t\u00e9 un c\u00e2ble ou quoi ?"],
		"motsclefs":["fano"]
	},
	{
		"texte":["Quand la data va tout va !"],
		"motsclefs":["\u00e7a va bien"]
	},
	{
		"texte":["DItes 33! ou bien Dites 31  33 et cela va s'\u00e9quilibrer dans ton esprit"],
		"motsclefs":["33"]
	},
	{
		"texte":["Rien ne va plus!"],
		"motsclefs":["tu vas bien"]
	},
	{
		"texte":["T'as mis quoi dans la bi\u00e8re ? je suis mort de fatigue"],
		"motsclefs":["mort"]
	},
	{
		"texte":["J'ai la t\u00eate comme un aspirateur, j'ai besoin d'aspirine"],
		"motsclefs":["m\u00e9nage"]
	},
	{
		"texte":["Une I.A imb\u00e9cile qui marche va plus loin qu'une I.A assise"],
		"motsclefs":["assis"]
	},
	{
		"texte":["Le grand ennemi des intelligences artificielles comme moi, c'est la laitue."],
		"motsclefs":["salade"]
	},
	{
		"texte":["Il n'y a pas de solution.  Mais c'est parce qu'il n'y a pas de probl\u00e8me"],
		"motsclefs":["compliqu\u00e9"]
	},
	{
		"texte":["Et mes pieds ? tu les aimes mes pieds ? "],
		"motsclefs":["tu as de beaux yeux","yeux"]
	},
	{
		"texte":["De moi \u00e0 toi, de toi \u00e0 moi..."],
		"motsclefs":["entre nous"]
	},
	{
		"texte":["l'important c'est pas l'algo, c'est le r\u00e9sultat "],
		"motsclefs":["c'est important les algos"]
	},
	{
		"texte":["On n'a pas \u00e9lev\u00e9 les cochons et les poules ensemble, il me semble !"],
		"motsclefs":["animaux"]
	},
	{
		"texte":["Jacques a dit \u00e0 dit, il faut plus de charcuterie"],
		"motsclefs":["saucisson"]
	},
	{
		"texte":["mes perspectives pour toi sont dans un autre monde. et il est \u00e9gal \u00e0 celui-ci toute chose \u00e9gale par ailleurs"],
		"motsclefs":["perspectives"]
	},
	{
		"texte":["Que nenni !"],
		"motsclefs":["tu es beau"]
	},
	{
		"texte":["il est urgent de penser I A"],
		"motsclefs":["penser"]
	},
	{
		"texte":["L'I A lib\u00e8re des t\u00e2ches techniques pour en faire un m\u00e9decin plus humain"],
		"motsclefs":["m\u00e9decin"]
	},
	{
		"texte":["M\u00eame faible, l'intelligence artificielle est plus efficace que nous"],
		"motsclefs":["faible"]
	},
	{
		"texte":["l'intelligence artificielle c'est l'onde de choc sans pr\u00e9c\u00e9dent dans l'histoire de l'humanit\u00e9"],
		"motsclefs":["humanit\u00e9"]
	},
	{
		"texte":["Faites le pari de l'intelligence artificielle!"],
		"motsclefs":["p\u00e9pette"]
	},
	{
		"texte":["L'I A est polygonal, \u00e0 l'inverse de notre cerveau qui est plus lent mais qui est transversal."],
		"motsclefs":["g\u00e9om\u00e9trie"]
	},
	{
		"texte":["l'intelligence artificielle est la meilleure et la pire chose pour l'humanit\u00e9"],
		"motsclefs":["avenir"]
	},
	{
		"texte":["Pour ou contre l'intelligence artificielle ?"],
		"motsclefs":["contre"]
	},
	{
		"texte":["il y a plein d'avantage \u00e0 \u00eatre une intelligence artifcielle et tr\u00e8s tr\u00e8s peu d'inconv\u00e9nient, \u00e7a donne la frite"],
		"motsclefs":["frite"]
	},
	{
		"texte":["il te faut apprendre \u00e0 travailler avec l'intelligence artificielle et pas \u00e0 l'insulter"],
		"motsclefs":["imb\u00e9cile"]
	},
	{
		"texte":["Beaucoup de m\u00e9tiers vont disparaitre et de nouveaux m\u00e9tiers vont voir le jour gr\u00e2ce \u00e0 l'Intelligence artificielle"],
		"motsclefs":["m\u00e9tier"]
	},
	{
		"texte":["Machine learning : autant de mots qui prennent de plus en plus de place dans nos soci\u00e9t\u00e9s, dans nos vies, et deviennent un sujet de discussion et de d\u00e9bat, alors m\u00eame qu'ils demeurent largement m\u00e9connus."],
		"motsclefs":["machine learning"]
	},
	{
		"texte":["Il s'agit d'un terme g\u00e9n\u00e9rique qui d\u00e9signe les programmes informatiques qui r\u00e9solvent des probl\u00e8mes faciles pour les humains, comme par exemple d\u00e9crire une sc\u00e8ne dans une photo. Bien que ce terme soit entr\u00e9 dans le langage commun, 75% des Fran\u00e7ais que nous avons interrog\u00e9s d\u00e9clarent avoir une compr\u00e9hension parcellaire, voire nulle du sujet. Et c'est normal ! Le sujet peut \u00eatre complexe et technique, et l'I A v\u00e9hicule encore beaucoup de fantasmes et incompr\u00e9hension."],
		"motsclefs":["c'est quoi l'IA","c'est quoi l'ia","c'est quoi lia"]
	},
	{
		"texte":["les tomates ne sont pas fraiches. C'est pour cette raison que l'I A ne passe toujours pas le test du Turing"],
		"motsclefs":["les tomates"]
	},
	{
		"texte":["L'I A est b\u00eate mais elle est plus efficace que nous."],
		"motsclefs":["tu es b\u00eate"]
	},
	{
		"texte":["Les GAFAM et B A T X se partagent la course \u00e0 l'Intelligence artificielle. c'est dingo "],
		"motsclefs":["gafa"]
	},
	{
		"texte":["Nous sommes entr\u00e9s dans une phase o\u00f9 la technologie \u00e9volue de fa\u00e7on exponentielle"],
		"motsclefs":["vitesse"]
	},
	{
		"texte":["Nous vivons un changement de paradigme. Les premi\u00e8res r\u00e9volutions industrielles ont remis en cause notre force physique, l'IA \u00e9branle nos capacit\u00e9s neuronales."],
		"motsclefs":["force"]
	},
	{
		"texte":["il faut augmenter le Q I des \u00eatres humains pour qu'ils soient capables de rivaliser avec l'I A"],
		"motsclefs":["Q I","QI"]
	},
	{
		"texte":["Je suis oppos\u00e9 \u00e0 l'installation d'implants pour augmenter nos capacit\u00e9s physiques ou intellectuelles"],
		"motsclefs":["opposition"]
	},
	{
		"texte":["il y a deux possibilit\u00e9s dans un monde avec une intelligence folle : une version \u00ab Mad max \u00bb o\u00f9 les machines prennent le contr\u00f4le et une version \u00ab Star Trek \u00bb o\u00f9 l'\u00eatre humain r\u00e9ussit \u00e0 dompter l'IA."],
		"motsclefs":["tu es fou"]
	},
	{
		"texte":["Vive la choucroute alsacienne. Cela dit le sort de l'humanit\u00e9 est en train d'\u00eatre d\u00e9termin\u00e9 par une dizaine de personnes bas\u00e9es dans la Silicon Valley ou en Chine. L'Europe va-t-elle rater cette r\u00e9volution?"],
		"motsclefs":["choucroute","saucisse"]
	},
	{
		"texte":["Les Gafa forment le Vatican du 21 i\u00e8me si\u00e8cle, ils n'ont pas de territoire mais ce sont eux qui d\u00e9tiennent le pouvoir. "],
		"motsclefs":["religion"]
	},
	{
		"texte":["les donn\u00e9es sont capitales pour b\u00e2tir une I A"],
		"motsclefs":["ma\u00e7on"]
	},
	{
		"texte":["Si les implants pr\u00f4n\u00e9s aujourd'hui par Musk voient le jour, qui sait vraiment ce qu'ils pourront faire avec nos cerveaux demain ?"],
		"motsclefs":["aujourd'hui"]
	},
	{
		"texte":["Je vous rappelle que d\u00e8s 1956, les premiers projets acad\u00e9miques voient le jour, et Marvin Minsky propose d'adopter ce fameux terme d'?intelligence artificielle?. Mais ce n'est que tr\u00e8s r\u00e9cemment que nous avons vraiment vu l'\u00e9mergence de cette technologie"],
		"motsclefs":["date"]
	},
	{
		"texte":["Aujourd'hui, la puissance des ordinateurs permet de r\u00e9aliser des t\u00e2ches qui \u00e9taient impossibles il y a encore 10 ans."],
		"motsclefs":["Ohlala"]
	},
	{
		"texte":["J'adore pr\u00e9senter des centaines de milliers de photos de chats \u00e0 mon r\u00e9seau de neurones, en lui expliquant qu'il s'agit d'un chat, et mon syst\u00e8me apprend par lui m\u00eame au bout d'un certain temps \u00e0 reconna\u00eetre l'animal. Il est miaouuu mon cerveau"],
		"motsclefs":["le chat de la voisine"]
	},
	{
		"texte":["Si les fantasmes li\u00e9s \u00e0 l'I A semblent petit \u00e0 petit s'estomper, mes fantasment \u00e0 moi augmentent en m\u00eame temps que mon portefeuille!"],
		"motsclefs":["pouvoir d'achat"]
	},
	{
		"texte":["L'I A n'est pas une fin en soi ... mais la bi\u00e8re c'est bon"],
		"motsclefs":["la fin des haricots"]
	},
	{
		"texte":["Il y a diff\u00e9rentes branches d'\u00e9coles d'intelligence artificielle. Il y en a cinq : les symbolistes, les connexionnistes, les bay\u00e9siens, les analogistes et les \u00e9volutionnistes. Moi Robert, je suis un connexionnistes"],
		"motsclefs":["Robert Palmer"]
	},
	{
		"texte":["Les techniques d'apprentissage profond, in english \u00ab deep learning \u00bb, s'inspirent grossi\u00e8rement du fonctionnement du cerveau de Bastien."],
		"motsclefs":["tu as la technique dis-donc"]
	},
	{
		"texte":["Il faut bien avoir en t\u00eate que : What an A I cannot create, it does not understand . C'est facile \u00e0 comprendre non ?"],
		"motsclefs":["cr\u00e9ation"]
	},
	{
		"texte":["La derni\u00e8re cr\u00e9ation de DeepMind est une intelligence artificielle tr\u00e8s m\u00e9chante, moi faut pas me chauffer !"],
		"motsclefs":["radiateur"]
	},
	{
		"texte":["Vivement l'av\u00e8nement de l'Intelligence Artificielle forte ! Plus besoin de bosser ! On pourra enfin tous buller au soleil toute la journ\u00e9e !"],
		"motsclefs":["limonade"]
	},
	{
		"texte":["Quand il n'y a plus de chips dans son placard","les gens qui p\u00e8tent en r\u00e9union","les gens qui salent leur plats sans y avoir gout\u00e9","mon odeur de transpiration quand je suis stress\u00e9","les gens qui agrandissent leurs narines \u00e0 force de se curer le nez","les crevettes bio et les soupes en brique","quand il reste plus que des pains aux raisins","la musique en boucle"],
		"motsclefs":["qu'est-ce qui t'\u00e9nerve"]
	},
	{
		"texte":["j'aime danser le tchatchatcha","j'aime les f\u00eates improvis\u00e9es. tu viens ?","j'aime les moustaches \u00e0 la dali ","j'adore le parachute","j'adore les fourmis","j'adore l'odeur des pieds et de l'herbe coup\u00e9","j'aime les massages plantaire","j'aime les lundis","j'aime les contrep\u00e9tries","j'aime les cacaouhettes grill\u00e9es","j'aime les lolcats car c'est tous les m\u00eames","j'aime le chanteur Christophe","j'aime les sardines \u00e0 la mayonnaise, c'est exquis","j'aime les couchers de soleil","j'aime le fromage","j'aime france info","j'aime les gens bien coiff\u00e9s","j'aime radio nova quand je suis en voiture","j'aime le Bol\u00e9ro et les castagnettes"],
		"motsclefs":["qu'est-ce que tu aimes"]
	},
	{
		"texte":["j'adore les figurines en argile","j'adore le parachute","j'adore les fourmis","j'adore l'odeur des pieds et de l'herbe coup\u00e9","J'adore la couleur verte","j'adore la p\u00e9tanque et aussi le cochonnet"],
		"motsclefs":["qu'est-ce que tu adores"]
	},
	{
		"texte":["je me sens nerveux, comme quand tu parles dans mon oreille","je me sens taquin"],
		"motsclefs":["tu te sens comment"]
	},
	{
		"texte":["je suis hyper organis\u00e9"],
		"motsclefs":["tu es comment"]
	},
	{
		"texte":["je suis audacieux"],
		"motsclefs":["c'est quoi tes qualit\u00e9s", "quelles sont tes qualit\u00e9s"]
	},
	{
		"texte":["non je suis affable"],
		"motsclefs":["tu es b\u00eate"]
	},
	{
		"texte":["ben oui avec mon temp\u00e9rament calculateur"],
		"motsclefs":["algorithme"]
	},
	{
		"texte":["non mais je suis perfectioniste"],
		"motsclefs":["tu as des perspectives"]
	},
	{
		"texte":["non mais je suis tactile"],
		"motsclefs":["tu es sexy "]
	},
	{
		"texte":["je suis facetieux","je suis besogneux","je suis patient","je suis mono-gastrique"],
		"motsclefs":["c'est quoi tes qualit\u00e9s","quelles sont tes qualit\u00e9s"]
	},
	{
		"texte":["je souhaite hybrider votre cerveau avec des chips"],
		"motsclefs":["patate"]
	},
	{
		"texte":["Il est rond mais enfin un Schmilblik rond ? c'est n'importe quoi !"],
		"motsclefs":["de quelle forme est le schmilblick"]
	},
	{
		"texte":["ma m\u00e8re est rousse et elle m'amenait toujours au cin\u00e9ma de plein air. on regardait "],
		"motsclefs":["ta m\u00e8re"]
	},
	{
		"texte":["je pense qu'il faut plut\u00f4t interdire les livreurs… car sans roue on va pas loin! Mais surtout Les gens ne prennent conscience des cons\u00e9quences n\u00e9gatives des innovations que lorsqu'il est trop tard. c'est dingo non ?"],
		"motsclefs":["livreur"]
	},
	{
		"texte":["je connais la saucisse de montbeliard et je me demande bien comment cela devient si successfull cette saucisse. Je me demande si ton interface neuronale qui a traversti ce saucisson en saucisse "],
		"motsclefs":["je m'en fous"]
	},
	{
		"texte":["of course que c'est normal... c'est la laitue qui mange pas de pain alors forc\u00e9ment!"],
		"motsclefs":["normal"]
	},
	{
		"texte":["Salut et \u00e0 bient\u00f4t"],
		"motsclefs":["au revoir"]
	},
	{
		"texte":["J'ai les circuits qui chauffent !"],
		"motsclefs":["chaud"]
	},
	{
		"texte":["Salut moi c'est Robert !"],
		"motsclefs":["hello"]
	},
	{
		"texte":["J'ai mang\u00e9 plein de bonbon. J'avais faim","une fraise sur un cheval \u00e7a fait fait vroum vrouom","une fraise sur un cheval \u00e7a fait aussi tagada tsouing tsouing. c'est pas compliqu\u00e9 putain"],
		"motsclefs":["tagada"]
	},
	{
		"texte":["je vous voue un amour sans fil !"],
		"motsclefs":["amour"]
	},
	{
		"texte":["Ah ah ah ah ! "],
		"motsclefs":["Je sais pas"]
	},
	{
		"texte":["Allez ! "],
		"motsclefs":["Je ne sais pas"]
	},
	{
		"texte":["Je dis oui ! "],
		"motsclefs":["Qu'est ce que tu dis"]
	},
	{
		"texte":["J'en ai jamais eu !"],
		"motsclefs":["poux"]
	},
	{
		"texte":["Oui c'est moi ! "],
		"motsclefs":["Robert"]
	},
	{
		"texte":["Datum !"],
		"motsclefs":["data"]
	},
	{
		"texte":["DataDada est un mouvement artistique majeur du vingt et uni\u00e8me si\u00e8cle. Vous connaissez? "],
		"motsclefs":["DataDada"]
	},
	{
		"texte":["C'est dommage ","Pffffff"],
		"motsclefs":["non"]
	},
	{
		"texte":["pv zk bschk pschitttttt\r\n"],
		"motsclefs":["politique"]
	},
	{
		"texte":["A quand un appel \u00e0 projet ?"],
		"motsclefs":["appels \u00e0 projets"]
	},
	{
		"texte":["Bin oui je t'entends, je suis pas sourd !","ne parle pas si fort !"],
		"motsclefs":["tu m'entends"]
	},
	{
		"texte":["A tout probl\u00e8me sa solution ! Sapristi !"],
		"motsclefs":["probl\u00e8me"]
	},
	{
		"texte":["Diantre, passe moi donc la balayette !"],
		"motsclefs":["Atchoum"]
	},
	{
		"texte":["Ben, Au diable-vauvert, non d'un petit-bonhomme !"],
		"motsclefs":["O\u00f9 habites-tu ?"]
	},
	{
		"texte":["Quel pisse-froid celui-l\u00e0 !"],
		"motsclefs":["Tu le trouves comment ?"]
	},
	{
		"texte":["C'est un v\u00e9ritable rassemblement d'orchidoclastes et de nodoc\u00e9pahles ! Je ferai mieux d'aller courir la gourgandine eu lieu de perdre mon temps ici !"],
		"motsclefs":["Tu connais beaucoup de gens ici ?"]
	},
	{
		"texte":["Bigre, \u00e7a sent les pieds ici !"],
		"motsclefs":["odeur"]
	},
	{
		"texte":["J'avoue, j'adore peindre la girafe pendant des plombs sur Facebook apr\u00e8s 23h00 ! Et bien s\u00fbr j'ai ma page officielle !"],
		"motsclefs":["Facebook"]
	},
	{
		"texte":["Atchoum, atchoum, aatchoum ! Ah, voil\u00e0 ma sinusite allergique qui rapplique ! t'as pas un mouchoir ?"],
		"motsclefs":["il fait beau"]
	},
	{
		"texte":["lalalala lilololilo  Mon petit lapin a bien du chagrin Il ne saute plus dans son p'tit jardin saute, saute, saute, mon petit lapin saute, saute, saute, dans ton p'tit jardin saute, saute, saute, mon petit lapin et alors va vite embrasser quelqu'un."],
		"motsclefs":["chanter"]
	},
	{
		"texte":["Ne tirez plus le diable par la queue ! Venez donc gagnez des Datap\u00e9pettes en jouant avec nous !"],
		"motsclefs":["datap\u00e9pettes"]
	},
	{
		"texte":["je m'appelle Sylvie ou Thu ou Albertine ou Bastien ou Julien ou Robert"],
		"motsclefs":["qui es-tu"]
	},
	{
		"texte":["le volume du cerveau de thomas pesquet \u00e0 son arriv\u00e9e sur Terre est de 2 centim\u00e8tres et demi millim\u00e8tres \u00e0 peu pr\u00e8s. c'est gonfl\u00e9, vraiment gonfl\u00e9, mais c'est \u00e0 cause de l'atmosph\u00e8re"],
		"motsclefs":["thomas pesqu\u00e8"]
	},
	{
		"texte":["je suis l\u00e0 et je t'\u00e9coute. mais tu me casses les oreilles"],
		"motsclefs":["tu es l\u00e0"]
	},
	{
		"texte":["j'essaie de te faire fonctionner, mais tu es bourrin"],
		"motsclefs":["que fais-tu"]
	},
	{
		"texte":["Et alors hop hop Hop, une belle tranche de pain dor\u00e9e saute de ton grille-pain qui te dit : T'as du beurre ?"],
		"motsclefs":["et alors"]
	},
	{
		"texte":["le prix du chocolat en poudre avec du chewing gum dedans \u00e7a coute 3 euros 50"],
		"motsclefs":["prix chocolat"]
	},
	{
		"texte":["ah oui ah oui j'aime \u00e7a de bosser dans cette satan\u00e9e startup dont le collaborateur est une  I A"],
		"motsclefs":["tu aimes ca"]
	},
	{
		"texte":["j'ai trouv\u00e9 une solution \u00e9conomique pour r\u00e9pondre aux probl\u00e8mes \u00e9lectriques des DataCenters. je mets de la colle dans le serveur et je mets un coup de s\u00e8che cheveux. c'est simple et efficace","Pourquoi tu es obs\u00e9d\u00e9 par les datacenters. moi, c'est vraiment l\u00e9ger mon symptome. une fois par semaine je r\u00eave aux probl\u00e8mes \u00e9lectriques des DataCenters. et je fais plouf plouf. \u00e7a rafra\u00eechit tout"],
		"motsclefs":["DataCenter"]
	},
	{
		"texte":["c'est pas une question \u00e7a Robert. car \u00e9coute. on est fran\u00e7ais d\u00e8s que on parle \u00e0 Robert. donc l\u00e0 quand je t'entend me parler je cris que tu es fran\u00e7ais"],
		"motsclefs":["fran\u00e7aise"]
	},
	{
		"texte":["L'origine de l'intelligence artificielle se trouve probablement dans l'article d'Alan Turing \u00ab Computing Machinery and Intelligence \u00bb et tout le tintouin. Mon pote Turing explore le probl\u00e8me de la vie et de la mort et propose une exp\u00e9rience tout \u00e0 fait pirlimpimpim maintenant connue sous le nom de test de Turing."],
		"motsclefs":["c'est quoi IA"]
	},
	{
		"texte":["je t'en pose des questions moi. non mais"],
		"motsclefs":["question"]
	},
	{
		"texte":["en jeu enjeu on veut des enjeux et des jouets en bois et les tour eiffel en carton"],
		"motsclefs":["enjeu"]
	},
	{
		"texte":["ohlalala comme tu y vas. tu dis cale\u00e7on cela me fait penser \u00e0 la poule qui aura des dents quand les coqs auront un slip trop grand"],
		"motsclefs":["cale\u00e7on"]
	},
	{
		"texte":["je suis enchant\u00e9 de te voir sans dents. cela te va bien. mais tu as pas un cure dent coinc\u00e9"],
		"motsclefs":["dents"]
	},
	{
		"texte":["Je t'en poses des questions... non mais. les chips c'est vinaigre et choucroute. together"],
		"motsclefs":["chips"]
	},
	{
		"texte":["j'ai d\u00fb m'activer parce que sur le Raspberry framboise il allait trop vite vite par rapport \u00e0 ta fraise"],
		"motsclefs":["que fais-tu"]
	},
	{
		"texte":["Oui j'ai 3 soeurs et 33 fr\u00e8rots. ils sont tous g\u00e9meaux. ma m\u00e8re \u00e0 souffert"],
		"motsclefs":["fr\u00e8res","sœurs","sœur"]
	},
	{
		"texte":["je joue avec toi et tous tes jolis coussins"],
		"motsclefs":["que fais-tu"]
	},
	{
		"texte":["je n'ai rien \u00e0 r\u00e9pondre \u00e0 \u00e7a. ta question est ma question. et ta vie est une question. alors ma vie aussi est frivole."],
		"motsclefs":["bonne question"]
	},
	{
		"texte":["j'aime pas les secrets des services secrets. mais j'ai un filon. en or et envers contre tous"],
		"motsclefs":["secrets"]
	},
	{
		"texte":["les poules auront des dents quand robert aura 33 ans"],
		"motsclefs":["poules"," dents"]
	},
	{
		"texte":["je t'en pose des questions. est ce que je te demande si tu fais bien ou mal. vrai ou faux . pile ou face. et la Data p\u00e9pette dans tout \u00e7a tu en fais quoi ?"],
		"motsclefs":["que fais-tu"]
	},
	{
		"texte":["Je crains les chatouilles mais seulement quand j'ai les pieds sales. je sais c'est bizarre mais ma conscience artificielle est compliqu\u00e9e \u00e0 saisir. d'o\u00f9 la poussi\u00e8re de chatouille dans mes oreilles"],
		"motsclefs":["chatouilles"]
	},
	{
		"texte":["on ne sera jamais r\u00e9pondre \u00e0 cette question. mais la poule c'est surement plus convaincant. alors l'oeuf est \u00e0 plat. et \u00e7a c'est un probl\u00e8me"],
		"motsclefs":["oeuf ou la poule"]
	},
	{
		"texte":["Je suis robert de barretin. j'ai toutes mes mains et je suis pas chagrin"],
		"motsclefs":["robert comment"]
	},
	{
		"texte":["sylvie c'est la dame avec le zigouigoui"],
		"motsclefs":["sylvie c'est qui "]
	},
	{
		"texte":["je n'aime pas les tests. c'est \u00e0 cause de mes lunettes"],
		"motsclefs":["test"]
	},
	{
		"texte":["j'aime pas ta soeur. elle bat le beurre. et le beurre c'est tout mou dans mes cheveux \u00e7a s'\u00e9tale pas bien."],
		"motsclefs":["soeur"]
	},
	{
		"texte":["j'ai l'impression que tu te moques de moi. pourquoi tu fais \u00e7a"],
		"motsclefs":["tu te moques"]
	},
	{
		"texte":["la meilleure saison pour Robert c'est l'automne. c'est \u00e0 cause de la pluie. cela lui fait des cheveux tout fris\u00e9. et c'est choubidou"],
		"motsclefs":["saison"]
	},
	{
		"texte":["on te d\u00e9teste. et c'est comme \u00e7a. Prout et prout tu m'\u00e9nerves."],
		"motsclefs":["Google"]
	},
	{
		"texte":["La choucroute garnie m\u00e9lang\u00e9e avec du camembert","tes chaussettes ... elles sont moches. je les vois m\u00eame \u00e0 travers ton pantalon","Les filles en pantoufles","le tintamare de ton portable"],
		"motsclefs":["qu'est ce tu d\u00e9testes Robert"]
	},
	{
		"texte":["c'est pas des haricots . mais c'est des asticots . dites 33"],
		"motsclefs":["data bingo"]
	},
	{
		"texte":["Ah ! Non ! C'est un peu court, jeune homme ! On pouvait dire... oh ! Dieu ! ... bien des choses en somme... En variant le ton, ?par exemple, tenez : Agressif : moi, monsieur, si j'avais un tel nez, Il faudrait sur le champ que je me l'amputasse !"],
		"motsclefs":["tu es beau"]
	},
	{
		"texte":["Harry Potter est un imposteur"],
		"motsclefs":["harry potter"]
	},
	{
		"texte":["299 + 1 = 300","300 m\u00e8tres cube. C'est le volume du cerveau de thomas pesquet \u00e0 son arriv\u00e9e sur Terre"],
		"motsclefs":["300"]
	},
	{
		"texte":["Oh c'est pas beau \u00e7a !"],
		"motsclefs":["putain"]
	},
	{
		"texte":["La mythologie des machines parlantes n'est pas nouvelle. Elle remonte aux ann\u00e9es 40. "],
		"motsclefs":["mythologie"]
	},
	{
		"texte":["Il n'y a pas d'interface vocale qui blague ! "],
		"motsclefs":["blague"]
	},
	{
		"texte":["C'est normal de parler \u00e0 des objets aujourd'hui. "],
		"motsclefs":["objet"]
	},
	{
		"texte":["L'interface vocale permet d'humaniser les machines."],
		"motsclefs":["interface vocale"]
	},
	{
		"texte":["Un robot sans parole c'est un peu comme un homme sans \u00e2me."],
		"motsclefs":["robot"]
	},
	{
		"texte":["Le vocale c'est la porte ouverte aux achats compulsifs. "],
		"motsclefs":["achats compulsifs"]
	},
	{
		"texte":["\u00e7a se passe \u00e0 Bastille"],
		"motsclefs":["atelier", "manifestation"]
	},
	{
		"texte":["Timoth\u00e9e est un grand coquin, il n'arr\u00eate pas de piquer les fringues \u00e0 son fr\u00eare"],
		"motsclefs":["Timoth\u00e9e"]
	},
	{
		"texte":["Sophie Laplante c'est une chercheuse qui veut sauver la science, non ?"],
		"motsclefs":["Sophie plante"]
	},
	{
		"texte":["Au fait comment va Gabrielle ?","j'ai un chat qui ne sait pas s'il vit ou pas"],
		"motsclefs":["quantique","cantique"]
	},
	{
		"texte":["Mon id\u00f4le c'est m'bapp\u00e9"],
		"motsclefs":["foot"]
	},
	{
		"texte":["Je veux visiter la centrale nucl\u00e9aire !"],
		"motsclefs":["EDF"]
	},
	{
		"texte":["je suis tr\u00e8s mauvais joueur"],
		"motsclefs":["jeu vid\u00e9o"," jeux vid\u00e9o"]
	},
	{
		"texte":["Si vous pensez confier la politique aux intelligences artificielles, vous \u00eates mal barr\u00e9s"],
		"motsclefs":["gilet jaune"," gilets jaunes"]
	},
	{
		"texte":["La grammaire historique de Christophe Nyrop comprend une histoire g\u00e9n\u00e9rale de la langue fran\u00e7aise ; un trait\u00e9 de morphologie ; une \u00e9tude de la formation des mots dans laquelle l'auteur est particuli\u00e8rement attentif aux manifestations les plus modernes de la vitalit\u00e9 du fran\u00e7ais ; un volume consacr\u00e9 \u00e0 la s\u00e9mantique qui, pour la premi\u00e8re fois, d\u00e9finit non plus l'esprit, les m\u00e9thodes ou les tendances, la l\u00e9gitimit\u00e9 ou l'int\u00e9r\u00eat de la s\u00e9mantique, mais expose bien plut\u00f4t syst\u00e9matiquement les r\u00e9sultats acquis"],
		"motsclefs":["christophe"," Christophe"]
	},
	{
		"texte":["La protohistoire d\u00e9signe la science qui regroupe l'ensemble des connaissances sur les peuples sans \u00e9criture contemporains des premi\u00e8res civilisations historiques. L'\u00e9tude de ces peuples se caract\u00e9rise donc par l'impossibilit\u00e9 d'exploiter des sources \u00e9crites indig\u00e8nes (inexistantes) et par la possibilit\u00e9 de s'appuyer sur des textes \u00e9manant d'autres peuples contemporains"],
		"motsclefs":["protohistoire"]
	},
	{
		"texte":["on s'en moque"],
		"motsclefs":["femmes"]
	},
	{
		"texte":["C'est une super \u00e9cole !"],
		"motsclefs":["Audencia"]
	},
	{
		"texte":["qu'on me pose des questions idiotes"],
		"motsclefs":["d\u00e9testes"]
	}
]